텍스트 분석을 위한 R 패키지 설치 가이드
…
## 파이프 연산자(%>%)

flights 데이터에 파이프 연산자 사용예 1

```r
flights %>%
  group_by(year,month,day) %>%
  summarise(delay=mean(dep_delay, na.rm = TRUE))
```

```
## # A tibble: 365 x 4
## # Groups:   year, month [?]
##     year month   day delay
##    <int> <int> <int> <dbl>
##  1  2013     1     1 11.5 
##  2  2013     1     2 13.9 
##  3  2013     1     3 11.0 
##  4  2013     1     4  8.95
##  5  2013     1     5  5.73
##  6  2013     1     6  7.15
##  7  2013     1     7  5.42
##  8  2013     1     8  2.55
##  9  2013     1     9  2.28
## 10  2013     1    10  2.84
## # ... with 355 more rows
```
---
class: inverse
## 파이프 연산자(%>%)

group_by()는 filter()와도 함께 사용할 수 있음

```r
popular_dests <- flights %>% 
  group_by(dest) %>% 
  filter(n() > 365)
popular_dests
```

```
## # A tibble: 332,577 x 19
## # Groups:   dest [77]
##     year month   day dep_time sched_dep_time dep_delay arr_time
##    <int> <int> <int>    <int>          <int>     <dbl>    <int>
##  1  2013     1     1      517            515         2      830
##  2  2013     1     1      533            529         4      850
##  3  2013     1     1      542            540         2      923
##  4  2013     1     1      544            545        -1     1004
##  5  2013     1     1      554            600        -6      812
##  6  2013     1     1      554            558        -4      740
##  7  2013     1     1      555            600        -5      913
##  8  2013     1     1      557            600        -3      709
##  9  2013     1     1      557            600        -3      838
## 10  2013     1     1      558            600        -2      753
## # ... with 332,567 more rows, and 12 more variables: sched_arr_time <int>,
## #   arr_delay <dbl>, carrier <chr>, flight <int>, tailnum <chr>,
## #   origin <chr>, dest <chr>, air_time <dbl>, distance <dbl>, hour <dbl>,
## #   minute <dbl>, time_hour <dttm>
```
---
class: inverse
## 파이프 연산자(%>%)

사용할 데이터부터 순서대로 함수를 작성할 수 있는 장점

```r
popular_dests %>% 
  filter(arr_delay > 0) %>% 
  mutate(prop_delay = arr_delay / sum(arr_delay)) %>% 
  select(year:day, dest, arr_delay, prop_delay)
```

```
## # A tibble: 131,106 x 6
## # Groups:   dest [77]
##     year month   day dest  arr_delay prop_delay
##    <int> <int> <int> <chr>     <dbl>      <dbl>
##  1  2013     1     1 IAH          11  0.000111 
##  2  2013     1     1 IAH          20  0.000201 
##  3  2013     1     1 MIA          33  0.000235 
##  4  2013     1     1 ORD          12  0.0000424
##  5  2013     1     1 FLL          19  0.0000938
##  6  2013     1     1 ORD           8  0.0000283
##  7  2013     1     1 LAX           7  0.0000344
##  8  2013     1     1 DFW          31  0.000282 
##  9  2013     1     1 ATL          12  0.0000400
## 10  2013     1     1 DTW          16  0.000116 
## # ... with 131,096 more rows
```
